5.370762244113136408e-01
-2.637145835809379779e+00
7.872815565648006775e+00
4.223162804901143819e-01
-4.400138099940251735e+00
2.661492696824639292e+00
4.410603821829669258e+00
1.134977410561338607e+00
3.500086976151208784e+00
-2.684631018095688937e+00
4.019098441704494817e+00
4.117128939872190863e+00
5.426359787075640817e-01
-2.666288722529947641e+00
-4.472159104829077636e-01
-1.988382505286405699e+00
8.936019956918580531e-01
3.690813453073622519e+00
-3.585430656823527240e-01
2.303342376933176505e-01
-5.172608475751030443e-01
-1.722484626745548919e+00
3.399454842909559460e-01
3.399410243754226180e-01
-7.631026128415909771e-01
-2.019291865368467054e+00
-6.136736313419557387e-01
9.693399308402264047e-01
-1.252143091292725385e+00
2.886863634708894732e+00
