6.885925146555492482e+00
-1.161373491896355414e+00
1.491975430384889556e+01
2.211424494123138906e+00
-3.966172383706279447e+00
4.533863021254360248e+00
1.165279621565636248e+01
1.105527063863877757e+01
6.545216732880789756e+00
-5.066260355966254458e+00
6.576343661270352747e+00
4.388818850791784243e+00
3.545345854613223935e+00
-2.421561937348593041e+00
2.313624147853707846e+00
-4.692849467003492592e-01
1.748137995477619944e+00
5.381374271170949797e+00
-3.585430656823527240e-01
2.303342376933176505e-01
-5.172608475751030443e-01
-1.722484626745548919e+00
3.399454842909559460e-01
3.399410243754226180e-01
-7.631026128415909771e-01
-2.019291865368467054e+00
-6.136736313419557387e-01
9.693399308402264047e-01
-1.252143091292725385e+00
2.886863634708894732e+00
