5.472606761953941579e+00
-3.705664729202628571e+00
1.429254180724277390e+01
2.211424494123138906e+00
-4.436593135067720794e+00
2.496390284081054567e+00
6.925260356893256031e+00
6.238730385462098127e+00
6.545216732880789756e+00
-5.066260355966254458e+00
6.576343661270352747e+00
5.451201165728810416e+00
3.545345854613223935e+00
-2.421561937348593041e+00
2.313624147853707846e+00
-1.988382505286405699e+00
1.748137995477619944e+00
5.381374271170949797e+00
-3.585430656823527240e-01
2.303342376933176505e-01
-5.172608475751030443e-01
-1.722484626745548919e+00
3.399454842909559460e-01
3.399410243754226180e-01
-7.631026128415909771e-01
-2.019291865368467054e+00
-6.136736313419557387e-01
9.693399308402264047e-01
-1.252143091292725385e+00
2.886863634708894732e+00
