-8.435868121953702392e-01
-2.637145835809379779e+00
4.396885050074945234e+00
4.223162804901143819e-01
-2.750934137118194567e+00
-8.021367111773742842e-01
5.241943723576436565e-02
9.004968330621259121e-01
2.577079650025523527e+00
-1.361850646780799812e+00
1.207135489469651990e+00
4.471845014184294698e-01
5.426359787075640817e-01
6.644007043517752287e-03
-5.950428245351968570e-03
5.724023948414614926e-01
6.629660551576860295e-01
-1.178581201274668810e+00
-3.585430656823527240e-01
2.303342376933176505e-01
-5.172608475751030443e-01
-1.722484626745548919e+00
3.399454842909559460e-01
3.399410243754226180e-01
-7.631026128415909771e-01
-6.318146843448649852e-01
5.539399291675868309e-01
9.693399308402264047e-01
-1.252143091292725385e+00
2.886863634708894732e+00
